…
## Combine precipitation datasets and convert month to a character variable

``` r
precip_2017_2018 =
  bind_rows(precip_2017, precip_2018) %>%
  janitor::clean_names() %>%
  select(year, month, total) %>%
  arrange(year, month) %>%
  mutate(
    month = as.numeric(month), 
    month = month.abb[month])
precip_2017_2018
```

    ## # A tibble: 24 x 3
    ##     year month total
    ##    <dbl> <chr> <dbl>
    ##  1  2017 Jan    2.34
    ##  2  2017 Feb    1.46
    ##  3  2017 Mar    3.57
    ##  4  2017 Apr    3.99
    ##  5  2017 May    5.64
    ##  6  2017 Jun    1.4 
    ##  7  2017 Jul    7.09
    ##  8  2017 Aug    4.44
    ##  9  2017 Sep    1.95
    ## 10  2017 Oct    0   
    ## # … with 14 more rows

``` r
precip_2017_2018
```

    ## # A tibble: 24 x 3
    ##     year month total
    ##    <dbl> <chr> <dbl>
    ##  1  2017 Jan    2.34
    ##  2  2017 Feb    1.46
    ##  3  2017 Mar    3.57
    ##  4  2017 Apr    3.99
    ##  5  2017 May    5.64
    ##  6  2017 Jun    1.4 
    ##  7  2017 Jul    7.09
    ##  8  2017 Aug    4.44
    ##  9  2017 Sep    1.95
    ## 10  2017 Oct    0   
    ## # … with 14 more rows
…
``` r
pols
```

    ## # A tibble: 822 x 9
    ##    year  month gov_gop sen_gop rep_gop gov_dem sen_dem rep_dem president
    ##    <chr> <chr>   <dbl>   <dbl>   <dbl>   <dbl>   <dbl>   <dbl> <chr>    
    ##  1 1947  Jan        23      51     253      23      45     198 dem      
    ##  2 1947  Feb        23      51     253      23      45     198 dem      
    ##  3 1947  Mar        23      51     253      23      45     198 dem      
    ##  4 1947  Apr        23      51     253      23      45     198 dem      
    ##  5 1947  May        23      51     253      23      45     198 dem      
    ##  6 1947  Jun        23      51     253      23      45     198 dem      
    ##  7 1947  Jul        23      51     253      23      45     198 dem      
    ##  8 1947  Aug        23      51     253      23      45     198 dem      
    ##  9 1947  Sep        23      51     253      23      45     198 dem      
    ## 10 1947  Oct        23      51     253      23      45     198 dem      
    ## # … with 812 more rows
…
    ## Parsed with column specification:
    ## cols(
    ##   date = col_character(),
    ##   close = col_double()
    ## )

``` r
snp
```

    ## # A tibble: 787 x 3
    ##    year  month sp_close
    ##    <chr> <chr>    <dbl>
    ##  1 1950  Jan       20.4
    ##  2 1950  Jan       19.5
    ##  3 1950  Jan       19.5
    ##  4 1950  Jan       18.4
    ##  5 1950  Jan       17.7
    ##  6 1950  Jan       18.8
    ##  7 1950  Jan       17.3
    ##  8 1950  Jan       17.2
    ##  9 1950  Feb       19.5
    ## 10 1950  Mar       17.8
    ## # … with 777 more rows
…
## Load and clean unemployment data

``` r
unemployment = read.csv(file = "fivethirtyeight_datasets/unemployment.csv") %>%
  pivot_longer(
    Jan:Dec,
    names_to = "month",
    values_to = "unemployment rate") %>%
  rename(year = Year) %>%
  mutate(
    year = as.character(year))
unemployment
```

    ## # A tibble: 816 x 3
    ##    year  month `unemployment rate`
    ##    <chr> <chr>               <dbl>
    ##  1 1948  Jan                   3.4
    ##  2 1948  Feb                   3.8
    ##  3 1948  Mar                   4  
    ##  4 1948  Apr                   3.9
    ##  5 1948  May                   3.5
    ##  6 1948  Jun                   3.6
    ##  7 1948  Jul                   3.6
    ##  8 1948  Aug                   3.9
    ##  9 1948  Sep                   3.8
    ## 10 1948  Oct                   3.7
    ## # … with 806 more rows
…
## Join the datasets by merging snp into pols

``` r
snp_pols = 
  left_join(pols, snp, by = c("year", "month"))
snp_pols
```

    ## # A tibble: 1,391 x 10
    ##    year  month gov_gop sen_gop rep_gop gov_dem sen_dem rep_dem president
    ##    <chr> <chr>   <dbl>   <dbl>   <dbl>   <dbl>   <dbl>   <dbl> <chr>    
    ##  1 1947  Jan        23      51     253      23      45     198 dem      
    ##  2 1947  Feb        23      51     253      23      45     198 dem      
    ##  3 1947  Mar        23      51     253      23      45     198 dem      
    ##  4 1947  Apr        23      51     253      23      45     198 dem      
    ##  5 1947  May        23      51     253      23      45     198 dem      
    ##  6 1947  Jun        23      51     253      23      45     198 dem      
    ##  7 1947  Jul        23      51     253      23      45     198 dem      
    ##  8 1947  Aug        23      51     253      23      45     198 dem      
    ##  9 1947  Sep        23      51     253      23      45     198 dem      
    ## 10 1947  Oct        23      51     253      23      45     198 dem      
    ## # … with 1,381 more rows, and 1 more variable: sp_close <dbl>

  - Using left join, we merge snp into pols to produce the snp\_pols
    dataset.

## Merge unemployment into snp\_pols

``` r
final_data = left_join(snp_pols, unemployment, by = c("year", "month"))
final_data
```

    ## # A tibble: 1,391 x 11
    ##    year  month gov_gop sen_gop rep_gop gov_dem sen_dem rep_dem president
    ##    <chr> <chr>   <dbl>   <dbl>   <dbl>   <dbl>   <dbl>   <dbl> <chr>    
    ##  1 1947  Jan        23      51     253      23      45     198 dem      
    ##  2 1947  Feb        23      51     253      23      45     198 dem      
    ##  3 1947  Mar        23      51     253      23      45     198 dem      
    ##  4 1947  Apr        23      51     253      23      45     198 dem      
    ##  5 1947  May        23      51     253      23      45     198 dem      
    ##  6 1947  Jun        23      51     253      23      45     198 dem      
    ##  7 1947  Jul        23      51     253      23      45     198 dem      
    ##  8 1947  Aug        23      51     253      23      45     198 dem      
    ##  9 1947  Sep        23      51     253      23      45     198 dem      
    ## 10 1947  Oct        23      51     253      23      45     198 dem      
    ## # … with 1,381 more rows, and 2 more variables: sp_close <dbl>,
    ## #   `unemployment rate` <dbl>
…
